%!PS-Adobe-3.0
%%Creator: graphviz version 2.36.0 (20140111.2315)
%%Title: G
%%Pages: (atend)
%%BoundingBox: (atend)
%%EndComments
save
%%BeginProlog
/DotDict 200 dict def
DotDict begin

/setupLatin1 {
mark
/EncodingVector 256 array def
 EncodingVector 0

ISOLatin1Encoding 0 255 getinterval putinterval
EncodingVector 45 /hyphen put

% Set up ISO Latin 1 character encoding
/starnetISO {
        dup dup findfont dup length dict begin
        { 1 index /FID ne { def }{ pop pop } ifelse
        } forall
        /Encoding EncodingVector def
        currentdict end definefont
} def
/Times-Roman starnetISO def
/Times-Italic starnetISO def
/Times-Bold starnetISO def
/Times-BoldItalic starnetISO def
/Helvetica starnetISO def
/Helvetica-Oblique starnetISO def
/Helvetica-Bold starnetISO def
/Helvetica-BoldOblique starnetISO def
/Courier starnetISO def
/Courier-Oblique starnetISO def
/Courier-Bold starnetISO def
/Courier-BoldOblique starnetISO def
cleartomark
} bind def

%%BeginResource: procset graphviz 0 0
/coord-font-family /Times-Roman def
/default-font-family /Times-Roman def
/coordfont coord-font-family findfont 8 scalefont def

/InvScaleFactor 1.0 def
/set_scale {
       dup 1 exch div /InvScaleFactor exch def
       scale
} bind def

% styles
/solid { [] 0 setdash } bind def
/dashed { [9 InvScaleFactor mul dup ] 0 setdash } bind def
/dotted { [1 InvScaleFactor mul 6 InvScaleFactor mul] 0 setdash } bind def
/invis {/fill {newpath} def /stroke {newpath} def /show {pop newpath} def} bind def
/bold { 2 setlinewidth } bind def
/filled { } bind def
/unfilled { } bind def
/rounded { } bind def
/diagonals { } bind def
/tapered { } bind def

% hooks for setting color 
/nodecolor { sethsbcolor } bind def
/edgecolor { sethsbcolor } bind def
/graphcolor { sethsbcolor } bind def
/nopcolor {pop pop pop} bind def

/beginpage {	% i j npages
	/npages exch def
	/j exch def
	/i exch def
	/str 10 string def
	npages 1 gt {
		gsave
			coordfont setfont
			0 0 moveto
			(\() show i str cvs show (,) show j str cvs show (\)) show
		grestore
	} if
} bind def

/set_font {
	findfont exch
	scalefont setfont
} def

% draw text fitted to its expected width
/alignedtext {			% width text
	/text exch def
	/width exch def
	gsave
		width 0 gt {
			[] 0 setdash
			text stringwidth pop width exch sub text length div 0 text ashow
		} if
	grestore
} def

/boxprim {				% xcorner ycorner xsize ysize
		4 2 roll
		moveto
		2 copy
		exch 0 rlineto
		0 exch rlineto
		pop neg 0 rlineto
		closepath
} bind def

/ellipse_path {
	/ry exch def
	/rx exch def
	/y exch def
	/x exch def
	matrix currentmatrix
	newpath
	x y translate
	rx ry scale
	0 0 1 0 360 arc
	setmatrix
} bind def

/endpage { showpage } bind def
/showpage { } def

/layercolorseq
	[	% layer color sequence - darkest to lightest
		[0 0 0]
		[.2 .8 .8]
		[.4 .8 .8]
		[.6 .8 .8]
		[.8 .8 .8]
	]
def

/layerlen layercolorseq length def

/setlayer {/maxlayer exch def /curlayer exch def
	layercolorseq curlayer 1 sub layerlen mod get
	aload pop sethsbcolor
	/nodecolor {nopcolor} def
	/edgecolor {nopcolor} def
	/graphcolor {nopcolor} def
} bind def

/onlayer { curlayer ne {invis} if } def

/onlayers {
	/myupper exch def
	/mylower exch def
	curlayer mylower lt
	curlayer myupper gt
	or
	{invis} if
} def

/curlayer 0 def

%%EndResource
%%EndProlog
%%BeginSetup
14 default-font-family set_font
1 setmiterlimit
% /arrowlength 10 def
% /arrowwidth 5 def

% make sure pdfmark is harmless for PS-interpreters other than Distiller
/pdfmark where {pop} {userdict /pdfmark /cleartomark load put} ifelse
% make '<<' and '>>' safe on PS Level 1 devices
/languagelevel where {pop languagelevel}{1} ifelse
2 lt {
    userdict (<<) cvn ([) cvn load put
    userdict (>>) cvn ([) cvn load put
} if

%%EndSetup
setupLatin1
%%Page: 1 1
%%PageBoundingBox: 36 36 225 344
%%PageOrientation: Portrait
0 0 1 beginpage
gsave
36 36 189 308 boxprim clip newpath
1 1 set_scale 0 rotate 40 40 translate
% 0
gsave
1 setlinewidth
0 0 0 nodecolor
138.3 282 27 18 ellipse_path stroke
0 0 0 nodecolor
14 /Times-Roman set_font
134.8 278.3 moveto 7 (0) alignedtext
grestore
% 1
gsave
1 setlinewidth
0 0 0 nodecolor
54.3 194 27 18 ellipse_path stroke
0 0 0 nodecolor
14 /Times-Roman set_font
50.8 190.3 moveto 7 (1) alignedtext
grestore
% 0--1
gsave
1 setlinewidth
0 0 0 edgecolor
newpath 112.88 275.57 moveto
96.22 270.67 75.37 261.73 63.3 246 curveto
55.97 236.44 53.84 222.92 53.49 212.2 curveto
stroke
0 0 0 edgecolor
14 /Times-Roman set_font
63.3 234.3 moveto 7 (1) alignedtext
grestore
% 2
gsave
1 setlinewidth
0 0 0 nodecolor
106.3 18 27 18 ellipse_path stroke
0 0 0 nodecolor
14 /Times-Roman set_font
102.8 14.3 moveto 7 (2) alignedtext
grestore
% 0--2
gsave
1 setlinewidth
0 0 0 edgecolor
newpath 148.04 264.83 moveto
150.98 259.09 153.82 252.45 155.3 246 curveto
171.09 177.33 163.3 155.26 142.3 88 curveto
136.26 68.65 124.94 48.29 116.6 34.74 curveto
stroke
0 0 0 edgecolor
14 /Times-Roman set_font
160.3 146.3 moveto 7 (1) alignedtext
grestore
% 3
gsave
1 setlinewidth
0 0 0 nodecolor
106.3 106 27 18 ellipse_path stroke
0 0 0 nodecolor
14 /Times-Roman set_font
102.8 102.3 moveto 7 (3) alignedtext
grestore
% 0--3
gsave
1 setlinewidth
0 0 0 edgecolor
newpath 140.47 263.72 moveto
143.17 236.84 145.85 183.76 131.3 142 curveto
128.79 134.81 124.31 127.79 119.83 121.95 curveto
stroke
0 0 0 edgecolor
14 /Times-Roman set_font
142.3 190.3 moveto 7 (1) alignedtext
grestore
% 1--0
gsave
1 setlinewidth
0 0 0 edgecolor
newpath 65.73 210.36 moveto
73.81 220.83 85.14 234.77 96.3 246 curveto
103.93 253.67 113.09 261.45 120.91 267.72 curveto
stroke
0 0 0 edgecolor
14 /Times-Roman set_font
96.3 234.3 moveto 7 (1) alignedtext
grestore
% 1--2
gsave
1 setlinewidth
0 0 0 edgecolor
newpath 37.87 179.52 moveto
31.19 173.44 23.77 165.87 18.3 158 curveto
.14 131.88 -3.26 119.13 3.3 88 curveto
6.71 71.84 6.41 65.46 18.3 54 curveto
35.35 37.57 61.06 28.55 80.3 23.8 curveto
stroke
0 0 0 edgecolor
14 /Times-Roman set_font
3.3 102.3 moveto 7 (3) alignedtext
grestore
% 1--3
gsave
1 setlinewidth
0 0 0 edgecolor
newpath 64.08 176.82 moveto
73.38 161.45 87.28 138.45 96.56 123.1 curveto
stroke
0 0 0 edgecolor
14 /Times-Roman set_font
84.3 146.3 moveto 7 (4) alignedtext
grestore
% 2--0
gsave
1 setlinewidth
0 0 0 edgecolor
newpath 123.66 32 moveto
130.99 38.1 139.22 45.82 145.3 54 curveto
178.69 98.89 172.22 120.2 176.3 176 curveto
178.58 207.14 184.1 217.99 170.3 246 curveto
166.44 253.83 160.29 261.18 154.41 267.1 curveto
stroke
0 0 0 edgecolor
14 /Times-Roman set_font
174.3 146.3 moveto 7 (1) alignedtext
grestore
% 2--1
gsave
1 setlinewidth
0 0 0 edgecolor
newpath 94.15 34.17 moveto
84.14 47.53 70.47 67.93 63.3 88 curveto
52.77 117.46 52.29 154.41 53.14 175.7 curveto
stroke
0 0 0 edgecolor
14 /Times-Roman set_font
63.3 102.3 moveto 7 (3) alignedtext
grestore
% 2--3
gsave
1 setlinewidth
0 0 0 edgecolor
newpath 106.3 36.08 moveto
106.3 51.01 106.3 72.58 106.3 87.6 curveto
stroke
0 0 0 edgecolor
14 /Times-Roman set_font
106.3 58.3 moveto 7 (7) alignedtext
grestore
% 3--0
gsave
1 setlinewidth
0 0 0 edgecolor
newpath 109.44 124.07 moveto
115.57 157.39 129.05 230.73 135.17 264 curveto
stroke
0 0 0 edgecolor
14 /Times-Roman set_font
125.3 190.3 moveto 7 (1) alignedtext
grestore
% 3--1
gsave
1 setlinewidth
0 0 0 edgecolor
newpath 88.33 119.95 moveto
81.17 125.93 73.43 133.57 68.3 142 curveto
61.99 152.35 58.47 165.59 56.53 175.98 curveto
stroke
0 0 0 edgecolor
14 /Times-Roman set_font
68.3 146.3 moveto 7 (4) alignedtext
grestore
% 3--2
gsave
1 setlinewidth
0 0 0 edgecolor
newpath 99.87 88.16 moveto
98.01 82.48 96.23 76.04 95.3 70 curveto
94.22 62.97 94.22 61.03 95.3 54 curveto
96.23 47.96 98.01 41.52 99.87 35.84 curveto
stroke
0 0 0 edgecolor
14 /Times-Roman set_font
95.3 58.3 moveto 7 (7) alignedtext
grestore
endpage
showpage
grestore
%%PageTrailer
%%EndPage: 1
%%Trailer
%%Pages: 1
%%BoundingBox: 36 36 225 344
end
restore
%%EOF
